{"page":{"pageNo":1,"pageSize":10,"totalCount":2801,"totalPage":281,"prePage":1,"next
Page":2},"totalpage":281,"totalcount":2801,"contents":[{"username":"天天卡牌","userId":10
59146,"userImg":"http://cdn.aixifan.com/dotnet/artemis/u/cms/www/201707/101643256syag
nb5.jpg","avatar":"http://cdn.aixifan.com/dotnet/artemis/u/cms/www/201707/101643256sy
agnb5.jpg","sign":"新浪微博@逗鱼时刻 逗鱼二号大本营457368375 投稿群491099643","aid":4010223,"cid":40102
23,"vid":5622843,"title":"炉石传说：【天天素材库】 第65期","titleImg":"http://imgs.aixifan.com/cont
ent/2017_9_02/1506932820.jpg","url":"/v/ac4010223","releaseDate":1506933385000,"descr
iption":"本期看点：涛妹将军的花式作死，会长没有平A的暗牧，BILL风怒晕针，星苏谁说没有耐久就捅不死人","channelId":83,"tags":"逗鱼时刻
,逗鱼,炉石,炉石传说,天天卡牌,天天素材库,涛妹,不二,安德罗妮,星苏","contentClass":"","author":"天天卡牌","allowDanmaku
":1,"views":25185,"danmakuSize":126,"stows":30,"comments":51,"score":0,"time":428,"is
Article":0,"success":true,"errorlog":""},{"username":"SteamParty","userId":934542,"us
erImg":"http://cdn.aixifan.com/dotnet/artemis/u/cms/www/201609/02175724kg7qbv77.jpg",
"avatar":"http://cdn.aixifan.com/dotnet/artemis/u/cms/www/201609/02175724kg7qbv77.jpg
","sign":"新浪微博@玩家木然","aid":4010072,"cid":4010072,"vid":5622663,"title":"STEAM销量周榜2017
年第38期 万事皆虚 万法皆允","titleImg":"http://imgs.aixifan.com/content/2017_9_02/1506922185.gif
","url":"/v/ac4010072","releaseDate":1506924400000,"description":"新片头和片尾留到国庆后，本周五更新9月
国区销量月榜。","channelId":83,"tags":"刺客信条,GTA5,全面战争,战锤,CSGO,绝地求生,行会3,弹丸论破,木然,彩虹六号围攻","cont
entClass":"","author":"SteamParty","allowDanmaku":1,"views":83829,"danmakuSize":751,"
stows":315,"comments":211,"score":0,"time":908,"isArticle":0,"success":true,"errorlog
":""},{"username":"STN工作室","userId":606168,"userImg":"http://cdn.aixifan.com/dotnet/a
rtemis/u/cms/www/201612/23010429j2o9ezp1.jpg","avatar":"http://cdn.aixifan.com/dotnet
/artemis/u/cms/www/201612/23010429j2o9ezp1.jpg","sign":"大家好，我是屎蛋，微博：weibo.com/dawnfal
l，一群：（已满）；二群：（已满）；三群 376854779~","aid":4010030,"cid":4010030,"vid":5622584,"title":"【
屎o说】我的回合，抽卡！","titleImg":"http://imgs.aixifan.com/content/2017_9_02/1506920192.jpg","
url":"/v/ac4010030","releaseDate":1506921350000,"description":"如何有技术的打牌~~~","channelI
d":165,"tags":"万智牌,游戏王,集换式卡牌游戏,炉石传说,DND,跑团,战锤40K","contentClass":"","author":"STN工作室"
,"allowDanmaku":1,"views":33396,"danmakuSize":173,"stows":102,"comments":77,"score":0
,"time":462,"isArticle":0,"success":true,"errorlog":""},{"username":"起小点是大腿","userId"
:534377,"userImg":"http://cdn.aixifan.com/dotnet/artemis/u/cms/www/201705/22180006hxp
oo6ah.jpg","avatar":"http://cdn.aixifan.com/dotnet/artemis/u/cms/www/201705/22180006h
xpoo6ah.jpg","sign":"微博：起小点 微信：起小点","aid":4009586,"cid":4009586,"vid":5621871,"title"
:"是大腿TOP10：世界赛史上十大最秀操作","titleImg":"http://imgs.aixifan.com/content/2017_9_01/1506872
343.jpg","url":"/v/ac4009586","releaseDate":1506872441000,"description":"由是大腿出品的《是大腿T
OP10》每周固定更新。微博 @是大腿 获取更多精彩内容。商务邮箱：bd@shidatui.com","channelId":85,"tags":"是大腿,S7,电子竞技
,英雄联盟,top10","contentClass":"","author":"起小点是大腿","allowDanmaku":1,"views":140201,"dan
makuSize":451,"stows":152,"comments":221,"score":0,"time":541,"isArticle":0,"success"
:true,"errorlog":""},{"username":"鲁路修・VI布里塔尼亚","userId":243400,"userImg":"http://cdn.
aixifan.com/dotnet/artemis/u/cms/www/201703/06114828sggxtcb5.jpg","avatar":"http://cd
n.aixifan.com/dotnet/artemis/u/cms/www/201703/06114828sggxtcb5.jpg","sign":"个人新浪微博ID：
Ac鲁路修 网易云音乐ID：Ac鲁路修 感谢大家一直以来的支持！大家有什么事情都可以直接私信告诉我哦！顺便UP主现在接各种靠谱商品的广告，详细请私信我联系！","aid"
:4009488,"cid":4009488,"vid":5621708,"title":"毁歌才是本体【第十七期】祝大家国庆中秋节快乐！","titleImg":"ht
tp://imgs.aixifan.com/content/2017_9_01/1506864610.gif","url":"/v/ac4009488","release
Date":1506864910000,"description":"\u003cbr/\u003eBGM度娘下载地址：https://pan.baidu.com/s/1
jIR7z9c?BGM网易云音乐：http://music.163.com/#/m/playlist?id\u003d938835805?上期毁歌：ac3758527\u
003cbr/\u003e?上一期回顾：ac3985927 催泪篇：ac3456003 总合辑：aa929 感谢大家的支持，祝大家国庆+中秋节快乐！下个星期更新正片，希望
可以维持周更！","channelId":86,"tags":"评论才是本体,毁歌才是本体,日常暴击","contentClass":"","author":"鲁路修・V
I布里塔尼亚","allowDanmaku":1,"views":78635,"danmakuSize":859,"stows":422,"comments":227,"
score":0,"time":1213,"isArticle":0,"success":true,"errorlog":""},{"username":"一只撸狗","
userId":1378726,"userImg":"http://cdn.aixifan.com/dotnet/artemis/u/cms/www/201505/082
33833dv61.jpg","avatar":"http://cdn.aixifan.com/dotnet/artemis/u/cms/www/201505/08233
833dv61.jpg","sign":"工作有点忙，微博：http://weibo.com/old90  Q群：572799410","aid":4009318,"ci
d":4009318,"vid":5621447,"title":"节日快乐快速看完一局韩服王者斗殴局#135Peanut,Dove,Zet,Crush,Ruler","
titleImg":"http://imgs.aixifan.com/content/2017_9_01/1506853542.jpg","url":"/v/ac4009
318","releaseDate":1506855066000,"description":"快速看完一局韩服王者斗殴局#135Peanut,Dove,Zet,Crus
h,Ruler\u003cbr/\u003eBGM：http://music.163.com/#/m/playlist?id\u003d650818240\u0026am
p;amp;amp;userid\u003d30476594表情包见签名的QQ群共享   未经允许，禁止二次上传转载，谢谢。","channelId":85,"tags"
:"英雄联盟,韩服,王者斗殴","contentClass":"","author":"一只撸狗","allowDanmaku":1,"views":121300,"da
nmakuSize":609,"stows":145,"comments":119,"score":0,"time":1100,"isArticle":0,"succes
s":true,"errorlog":""},{"username":"随从MT","userId":4609041,"userImg":"http://cdn.aixi
fan.com/dotnet/artemis/u/cms/www/201703/30155933l5mt0sla.jpg","avatar":"http://cdn.ai
xifan.com/dotnet/artemis/u/cms/www/201703/30155933l5mt0sla.jpg","sign":"避其锋芒，权且忍让","a
id":4009235,"cid":4009235,"vid":5621298,"title":"《茶杯头（Teacup head）》高难度实况攻略流程 第四期","ti
tleImg":"http://imgs.aixifan.com/content/2017_9_01/1506848825.jpg","url":"/v/ac400923
5","releaseDate":1506850780000,"description":"分好了 美滋滋www","channelId":84,"tags":"随从MT
,茶杯头,Teacup,head","contentClass":"","author":"随从MT","allowDanmaku":1,"views":1564,"da
nmakuSize":0,"stows":6,"comments":0,"score":0,"time":3296,"isArticle":0,"success":tru
e,"errorlog":""},{"username":"STN工作室","userId":606168,"userImg":"http://cdn.aixifan.c
om/dotnet/artemis/u/cms/www/201612/23010429j2o9ezp1.jpg","avatar":"http://cdn.aixifan
.com/dotnet/artemis/u/cms/www/201612/23010429j2o9ezp1.jpg","sign":"大家好，我是屎蛋，微博：weibo.
com/dawnfall，一群：（已满）；二群：（已满）；三群 376854779~","aid":4009217,"cid":4009217,"vid":5621295
,"title":"【STN快报 十一特辑】带你走入快报的幕后世界","titleImg":"http://imgs.aixifan.com/content/2017_9
_01/1506849820.jpg","url":"/v/ac4009217","releaseDate":1506850002000,"description":"简
介：青山不改，绿水长流。祝各位观众老爷十一快乐！","channelId":84,"tags":"屎蛋,STN快报,国庆,十一,特辑,我们没有拖更一周","content
Class":"","author":"STN工作室","allowDanmaku":1,"views":104923,"danmakuSize":373,"stows"
:277,"comments":147,"score":0,"time":371,"isArticle":0,"success":true,"errorlog":""},
{"username":"随从MT","userId":4609041,"userImg":"http://cdn.aixifan.com/dotnet/artemis/
u/cms/www/201703/30155933l5mt0sla.jpg","avatar":"http://cdn.aixifan.com/dotnet/artemi
s/u/cms/www/201703/30155933l5mt0sla.jpg","sign":"避其锋芒，权且忍让","aid":4009203,"cid":40092
03,"vid":5621236,"title":"《茶杯头（Teacup head）》高难度实况攻略流程 第三期","titleImg":"http://imgs.ai
xifan.com/content/2017_9_01/1506846993.jpg","url":"/v/ac4009203","releaseDate":150684
9330000,"description":"补补补 分分分 [○?｀Д?? ○]","channelId":84,"tags":"随从MT,茶杯头,Teacup,hea
d","contentClass":"","author":"随从MT","allowDanmaku":1,"views":1492,"danmakuSize":0,"s
tows":7,"comments":0,"score":0,"time":3107,"isArticle":0,"success":true,"errorlog":""
},{"username":"天天卡牌","userId":1059146,"userImg":"http://cdn.aixifan.com/dotnet/artemi
s/u/cms/www/201707/101643256syagnb5.jpg","avatar":"http://cdn.aixifan.com/dotnet/arte
mis/u/cms/www/201707/101643256syagnb5.jpg","sign":"新浪微博@逗鱼时刻 逗鱼二号大本营457368375 投稿群4910
99643","aid":4009175,"cid":4009175,"vid":5621234,"title":"守望先锋【午时已到】第45期：Dva的替身攻击","t
itleImg":"http://imgs.aixifan.com/content/2017_9_01/1506847571.jpg","url":"/v/ac40091
75","releaseDate":1506847710000,"description":"本期看点：都是天使队友区别咋这么大，猩猩的精准计算拯救队友，末日铁拳一通操作
结果如何，片尾Dva机甲单独抵挡伤害\r\u003cbr/\u003e\r\u003cbr/\u003e祝大家国庆节快乐~","channelId":170,"tags"
:"逗鱼时刻,守望,守望先锋,午时已到,天天卡牌,天使,猩猩,末日铁拳,DVa,大锤","contentClass":"","author":"天天卡牌","allowD
anmaku":1,"views":19737,"danmakuSize":69,"stows":67,"comments":26,"score":0,"time":51
0,"isArticle":0,"success":true,"errorlog":""}],"success":true}